Proyectos/lab9/SecuenciaTemporizado/simulation/qsim/SecuenciaTemporizado.msim.vcd
$comment
	File created using the following command:
		vcd file SecuenciaTemporizado.msim.vcd -direction
$end
$date
	Sat Apr 25 20:59:41 2020
$end
$version
	ModelSim Version 10.5b
$end
$timescale
	1ps
$end

$scope module secuencia_vhd_vec_tst $end
$var wire 1 ! clk $end
$var wire 1 " en $end
$var wire 1 # resetn $end
$var wire 1 $ z [0] $end
$var wire 1 % z [1] $end
$var wire 1 & z [2] $end
$var wire 1 ' z [3] $end

$scope module i1 $end
$var wire 1 ( gnd $end
$var wire 1 ) vcc $end
$var wire 1 * unknown $end
$var wire 1 + devoe $end
$var wire 1 , devclrn $end
$var wire 1 - devpor $end
$var wire 1 . ww_devoe $end
$var wire 1 / ww_devclrn $end
$var wire 1 0 ww_devpor $end
$var wire 1 1 ww_clk $end
$var wire 1 2 ww_resetn $end
$var wire 1 3 ww_en $end
$var wire 1 4 ww_z [0] $end
$var wire 1 5 ww_z [1] $end
$var wire 1 6 ww_z [2] $end
$var wire 1 7 ww_z [3] $end
$var wire 1 8 \resetn~inputclkctrl_INCLK_bus\ [3] $end
$var wire 1 9 \resetn~inputclkctrl_INCLK_bus\ [2] $end
$var wire 1 : \resetn~inputclkctrl_INCLK_bus\ [1] $end
$var wire 1 ; \resetn~inputclkctrl_INCLK_bus\ [0] $end
$var wire 1 < \clk~inputclkctrl_INCLK_bus\ [3] $end
$var wire 1 = \clk~inputclkctrl_INCLK_bus\ [2] $end
$var wire 1 > \clk~inputclkctrl_INCLK_bus\ [1] $end
$var wire 1 ? \clk~inputclkctrl_INCLK_bus\ [0] $end
$var wire 1 @ \z[3]~output_o\ $end
$var wire 1 A \z[2]~output_o\ $end
$var wire 1 B \z[1]~output_o\ $end
$var wire 1 C \z[0]~output_o\ $end
$var wire 1 D \clk~input_o\ $end
$var wire 1 E \clk~inputclkctrl_outclk\ $end
$var wire 1 F \estado.st4~feeder_combout\ $end
$var wire 1 G \resetn~input_o\ $end
$var wire 1 H \resetn~inputclkctrl_outclk\ $end
$var wire 1 I \en~input_o\ $end
$var wire 1 J \estado.st4~q\ $end
$var wire 1 K \estado.st5~feeder_combout\ $end
$var wire 1 L \estado.st5~q\ $end
$var wire 1 M \estado.st6~q\ $end
$var wire 1 N \estado.st7~q\ $end
$var wire 1 O \estado.st8~feeder_combout\ $end
$var wire 1 P \estado.st8~q\ $end
$var wire 1 Q \estado.st1~0_combout\ $end
$var wire 1 R \estado.st1~q\ $end
$var wire 1 S \estado.st2~0_combout\ $end
$var wire 1 T \estado.st2~q\ $end
$var wire 1 U \estado.st3~feeder_combout\ $end
$var wire 1 V \estado.st3~q\ $end
$var wire 1 W \WideOr10~0_combout\ $end
$var wire 1 X \WideOr9~0_combout\ $end
$var wire 1 Y \WideOr8~combout\ $end
$var wire 1 Z \ALT_INV_WideOr9~0_combout\ $end
$var wire 1 [ \ALT_INV_WideOr10~0_combout\ $end
$upscope $end
$upscope $end
$enddefinitions $end
#0
$dumpvars
1!
1"
1#
0(
1)
x*
1+
1,
1-
1.
1/
10
11
12
13
1@
0A
0B
0C
1D
1E
0F
1G
1H
1I
0J
0K
0L
0M
0N
0O
0P
1Q
0R
1S
0T
0U
0V
0W
1X
0Y
0Z
1[
04
05
06
17
1<
1=
1>
1?
18
19
1:
1;
0$
0%
0&
1'
$end
#10000
0!
01
0D
0?
0E
#20000
1!
11
1D
1?
1E
1R
1T
1U
1Y
0S
1B
15
1%
#30000
0!
01
0D
0?
0E
#40000
1!
11
1D
1?
1E
0T
1V
1F
1W
0U
0[
0@
07
0'
#50000
0!
01
0D
0?
0E
#60000
1!
11
1D
1?
1E
1J
0V
0F
0W
0X
0Y
1K
1Z
1[
0B
1@
1A
05
17
16
0%
1'
1&
#70000
0!
01
0D
0?
0E
#80000
1!
11
1D
1?
1E
0J
1L
0K
#90000
0!
01
0D
0?
0E
#100000
1!
11
1D
1?
1E
0L
1M
1W
0[
0@
07
0'
#110000
0!
01
0D
0?
0E
#120000
1!
11
1D
1?
1E
0M
1N
1O
1X
0W
1[
0Z
0A
1@
06
17
1'
0&
#130000
0!
01
0D
0?
0E
#140000
1!
11
1D
1?
1E
0N
1P
0Q
1W
1Y
0O
0X
1Z
0[
1B
0@
1A
15
07
16
1%
0'
1&
#150000
0!
01
0D
0?
0E
#160000
1!
11
1D
1?
1E
0P
0R
1S
1X
1Q
0W
0Y
1[
0Z
0B
0A
1@
05
06
17
0%
1'
0&
#170000
0!
01
0D
0?
0E
#180000
1!
0"
11
03
0I
1D
1?
1E
#190000
0!
01
0D
0?
0E
#200000
1!
1"
11
13
1I
1D
1?
1E
1R
1T
1U
1Y
0S
1B
15
1%
#210000
0!
01
0D
0?
0E
#220000
1!
11
1D
1?
1E
0T
1V
1F
1W
0U
0[
0@
07
0'
#230000
0!
01
0D
0?
0E
#240000
1!
0#
11
02
0G
1D
0;
1?
1E
0H
0R
0V
0F
0W
0Y
1S
1[
0B
1@
05
17
0%
1'
#250000
0!
01
0D
0?
0E
#260000
1!
1#
11
12
1G
1D
1;
1?
1E
1H
1R
1T
1U
1Y
0S
1B
15
1%
#270000
0!
01
0D
0?
0E
#280000
1!
11
1D
1?
1E
0T
1V
1F
1W
0U
0[
0@
07
0'
#290000
0!
01
0D
0?
0E
#300000
1!
11
1D
1?
1E
1J
0V
0F
0W
0X
0Y
1K
1Z
1[
0B
1@
1A
05
17
16
0%
1'
1&
#310000
0!
01
0D
0?
0E
#320000
1!
11
1D
1?
1E
0J
1L
0K
#330000
0!
01
0D
0?
0E
#340000
1!
11
1D
1?
1E
0L
1M
1W
0[
0@
07
0'
#350000
0!
01
0D
0?
0E
#360000
1!
0"
11
03
0I
1D
1?
1E
#370000
0!
01
0D
0?
0E
#380000
1!
1"
11
13
1I
1D
1?
1E
0M
1N
1O
1X
0W
1[
0Z
0A
1@
06
17
1'
0&
#390000
0!
01
0D
0?
0E
#400000
1!
11
1D
1?
1E
0N
1P
0Q
1W
1Y
0O
0X
1Z
0[
1B
0@
1A
15
07
16
1%
0'
1&
#410000
0!
01
0D
0?
0E
#420000
1!
11
1D
1?
1E
0P
0R
1S
1X
1Q
0W
0Y
1[
0Z
0B
0A
1@
05
06
17
0%
1'
0&
#430000
0!
01
0D
0?
0E
#440000
1!
11
1D
1?
1E
1R
1T
1U
1Y
0S
1B
15
1%
#450000
0!
01
0D
0?
0E
#460000
1!
11
1D
1?
1E
0T
1V
1F
1W
0U
0[
0@
07
0'
#470000
0!
01
0D
0?
0E
