Proyectos/lab7/ALU74381/simulation/qsim/lab7.msim.vcd
$comment
	File created using the following command:
		vcd file lab7.msim.vcd -direction
$end
$date
	Sun Apr 19 18:18:53 2020
$end
$version
	ModelSim Version 10.5b
$end
$timescale
	1ps
$end

$scope module lab7_vhd_vec_tst $end
$var wire 1 ! DIP_SW [1] $end
$var wire 1 " DIP_SW [2] $end
$var wire 1 # DIP_SW [3] $end
$var wire 1 $ DIP_SW [4] $end
$var wire 1 % DIP_SW [5] $end
$var wire 1 & DIP_SW [6] $end
$var wire 1 ' DIP_SW [7] $end
$var wire 1 ( DIP_SW [8] $end
$var wire 1 ) DISP [1] $end
$var wire 1 * DISP [2] $end
$var wire 1 + DISP [3] $end
$var wire 1 , DISP [4] $end
$var wire 1 - DISP [5] $end
$var wire 1 . DISP [6] $end
$var wire 1 / DISP [7] $end
$var wire 1 0 KEY_EX [0] $end
$var wire 1 1 KEY_EX [1] $end
$var wire 1 2 LED [0] $end
$var wire 1 3 LED [1] $end
$var wire 1 4 LED [2] $end
$var wire 1 5 LED [3] $end
$var wire 1 6 SW [0] $end
$var wire 1 7 SW [1] $end
$var wire 1 8 SW [2] $end

$scope module i1 $end
$var wire 1 9 gnd $end
$var wire 1 : vcc $end
$var wire 1 ; unknown $end
$var wire 1 < devoe $end
$var wire 1 = devclrn $end
$var wire 1 > devpor $end
$var wire 1 ? ww_devoe $end
$var wire 1 @ ww_devclrn $end
$var wire 1 A ww_devpor $end
$var wire 1 B ww_DIP_SW [1] $end
$var wire 1 C ww_DIP_SW [2] $end
$var wire 1 D ww_DIP_SW [3] $end
$var wire 1 E ww_DIP_SW [4] $end
$var wire 1 F ww_DIP_SW [5] $end
$var wire 1 G ww_DIP_SW [6] $end
$var wire 1 H ww_DIP_SW [7] $end
$var wire 1 I ww_DIP_SW [8] $end
$var wire 1 J ww_SW [0] $end
$var wire 1 K ww_SW [1] $end
$var wire 1 L ww_SW [2] $end
$var wire 1 M ww_KEY_EX [0] $end
$var wire 1 N ww_KEY_EX [1] $end
$var wire 1 O ww_LED [0] $end
$var wire 1 P ww_LED [1] $end
$var wire 1 Q ww_LED [2] $end
$var wire 1 R ww_LED [3] $end
$var wire 1 S ww_DISP [1] $end
$var wire 1 T ww_DISP [2] $end
$var wire 1 U ww_DISP [3] $end
$var wire 1 V ww_DISP [4] $end
$var wire 1 W ww_DISP [5] $end
$var wire 1 X ww_DISP [6] $end
$var wire 1 Y ww_DISP [7] $end
$var wire 1 Z \LED[3]~output_o\ $end
$var wire 1 [ \LED[2]~output_o\ $end
$var wire 1 \ \LED[1]~output_o\ $end
$var wire 1 ] \LED[0]~output_o\ $end
$var wire 1 ^ \DISP[7]~output_o\ $end
$var wire 1 _ \DISP[6]~output_o\ $end
$var wire 1 ` \DISP[5]~output_o\ $end
$var wire 1 a \DISP[4]~output_o\ $end
$var wire 1 b \DISP[3]~output_o\ $end
$var wire 1 c \DISP[2]~output_o\ $end
$var wire 1 d \DISP[1]~output_o\ $end
$var wire 1 e \DIP_SW[4]~input_o\ $end
$var wire 1 f \DIP_SW[8]~input_o\ $end
$var wire 1 g \SW[0]~input_o\ $end
$var wire 1 h \SW[1]~input_o\ $end
$var wire 1 i \Mux3~3_combout\ $end
$var wire 1 j \SW[2]~input_o\ $end
$var wire 1 k \Mux3~1_combout\ $end
$var wire 1 l \Mux3~0_combout\ $end
$var wire 1 m \a|F~0_combout\ $end
$var wire 1 n \a|Add0~7_combout\ $end
$var wire 1 o \a|Add0~6_combout\ $end
$var wire 1 p \a|Add0~9_cout\ $end
$var wire 1 q \a|Add0~10_combout\ $end
$var wire 1 r \a|Add0~24_combout\ $end
$var wire 1 s \Mux3~2_combout\ $end
$var wire 1 t \Mux3~4_combout\ $end
$var wire 1 u \KEY_EX[1]~input_o\ $end
$var wire 1 v \KEY_EX[0]~input_o\ $end
$var wire 1 w \Mux3~5_combout\ $end
$var wire 1 x \Mux3~6_combout\ $end
$var wire 1 y \DIP_SW[7]~input_o\ $end
$var wire 1 z \DIP_SW[3]~input_o\ $end
$var wire 1 { \a|F~1_combout\ $end
$var wire 1 | \a|Add0~12_combout\ $end
$var wire 1 } \a|Add0~13_combout\ $end
$var wire 1 ~ \a|Add0~11\ $end
$var wire 1 !! \a|Add0~14_combout\ $end
$var wire 1 "! \a|Add0~25_combout\ $end
$var wire 1 #! \Mux2~0_combout\ $end
$var wire 1 $! \Mux2~1_combout\ $end
$var wire 1 %! \Mux2~2_combout\ $end
$var wire 1 &! \Mux2~3_combout\ $end
$var wire 1 '! \DIP_SW[2]~input_o\ $end
$var wire 1 (! \DIP_SW[6]~input_o\ $end
$var wire 1 )! \a|F~2_combout\ $end
$var wire 1 *! \a|Add0~17_combout\ $end
$var wire 1 +! \a|Add0~16_combout\ $end
$var wire 1 ,! \a|Add0~15\ $end
$var wire 1 -! \a|Add0~18_combout\ $end
$var wire 1 .! \a|Add0~26_combout\ $end
$var wire 1 /! \Mux1~0_combout\ $end
$var wire 1 0! \Mux1~1_combout\ $end
$var wire 1 1! \Mux1~2_combout\ $end
$var wire 1 2! \Mux1~3_combout\ $end
$var wire 1 3! \DIP_SW[5]~input_o\ $end
$var wire 1 4! \a|Add0~21_combout\ $end
$var wire 1 5! \DIP_SW[1]~input_o\ $end
$var wire 1 6! \a|Add0~20_combout\ $end
$var wire 1 7! \a|Add0~19\ $end
$var wire 1 8! \a|Add0~22_combout\ $end
$var wire 1 9! \a|Mux0~1_combout\ $end
$var wire 1 :! \a|Mux0~0_combout\ $end
$var wire 1 ;! \a|Mux0~2_combout\ $end
$var wire 1 <! \Mux0~0_combout\ $end
$var wire 1 =! \Mux0~1_combout\ $end
$var wire 1 >! \d|Mux6~0_combout\ $end
$var wire 1 ?! \d|Mux5~0_combout\ $end
$var wire 1 @! \d|Mux4~0_combout\ $end
$var wire 1 A! \d|Mux3~0_combout\ $end
$var wire 1 B! \d|Mux2~0_combout\ $end
$var wire 1 C! \d|Mux1~0_combout\ $end
$var wire 1 D! \d|Mux0~0_combout\ $end
$var wire 1 E! \d|ALT_INV_Mux0~0_combout\ $end
$var wire 1 F! \d|ALT_INV_Mux1~0_combout\ $end
$var wire 1 G! \d|ALT_INV_Mux2~0_combout\ $end
$var wire 1 H! \d|ALT_INV_Mux3~0_combout\ $end
$var wire 1 I! \d|ALT_INV_Mux4~0_combout\ $end
$var wire 1 J! \d|ALT_INV_Mux5~0_combout\ $end
$upscope $end
$upscope $end
$enddefinitions $end
#0
$dumpvars
09
1:
x;
1<
1=
1>
1?
1@
1A
0Z
0[
0\
0]
0^
1_
1`
1a
1b
1c
1d
0e
1f
0g
0h
1i
0j
0k
1l
0m
1n
0o
1p
0q
0r
0s
0t
0u
0v
0w
0x
1y
1z
1{
1|
1}
0~
1!!
0"!
0#!
0$!
0%!
0&!
1'!
0(!
0)!
0*!
1+!
0,!
1-!
0.!
0/!
00!
01!
02!
03!
04!
05!
06!
17!
08!
09!
1:!
0;!
0<!
0=!
0>!
0?!
0@!
0A!
0B!
0C!
0D!
1E!
1F!
1G!
1H!
1I!
1J!
0!
1"
1#
0$
0%
0&
1'
1(
00
01
06
07
08
0B
1C
1D
0E
0F
0G
1H
1I
0J
0K
0L
0M
0N
0O
0P
0Q
0R
1S
1T
1U
1V
1W
1X
0Y
1)
1*
1+
1,
1-
1.
0/
02
03
04
05
$end
#10000
18
1L
1j
0n
0}
1"!
1*!
1.!
14!
0:!
18!
1/!
0-!
1#!
0!!
1,!
1q
1r
1-!
0"!
1$!
0.!
10!
1;!
1<!
11!
0/!
1%!
0#!
1.!
1s
1t
1/!
0$!
1&!
00!
12!
1=!
01!
1>!
1B!
1C!
0%!
10!
1w
0F!
0G!
1x
11!
0&!
02!
1]
1\
1[
12!
1@!
0B!
0C!
1O
1P
1Q
1^
1F!
1G!
0I!
14
13
12
0b
0c
1?!
0@!
1D!
1Y
0\
0[
1Z
0E!
1I!
0J!
0U
0T
1/
0P
0Q
1R
0+
0*
1\
15
04
03
0`
1b
1c
1P
0W
1U
1T
13
0_
1`
0d
0-
1+
1*
0X
1W
0S
0.
1-
0)
#20000
08
17
0L
1K
1h
0j
1n
1}
0*!
04!
1o
0|
0+!
16!
07!
1~
1!!
0,!
08!
0;!
0-!
1"!
1#!
0.!
0<!
0=!
0/!
1$!
1%!
00!
0?!
1@!
1C!
0D!
1E!
0F!
0I!
1J!
01!
1&!
0]
0>!
1?!
1A!
0C!
02!
0O
1F!
0H!
0J!
02
1_
0`
0c
1d
1>!
0A!
1[
1H!
1X
0W
0T
1S
1Q
1.
0-
0*
1)
0\
0^
14
0_
0a
1c
0P
0Y
1^
0X
0V
1T
03
0/
1a
1Y
0.
0,
1*
1V
1/
1,
#30000
18
1L
1j
0n
0p
0}
1*!
14!
19!
18!
1-!
17!
0!!
1,!
0-!
07!
0"!
08!
1.!
1;!
1<!
1/!
0;!
0#!
18!
0.!
0/!
1;!
0$!
0<!
10!
1=!
0?!
0@!
1C!
1D!
11!
0=!
0%!
1<!
00!
0E!
0F!
1I!
1J!
01!
1=!
0&!
1?!
1@!
0C!
0D!
12!
1]
1E!
1F!
0I!
0J!
0@!
1D!
02!
1O
0]
0E!
1I!
12
1_
1`
0c
0d
0?!
1@!
0D!
0O
1\
0[
1]
1E!
0I!
1J!
1X
1W
0T
0S
02
0_
0`
1c
1d
1P
0Q
1O
1.
1-
0*
0)
0\
0X
0W
1T
1S
04
13
12
1`
0d
0P
0.
0-
1*
1)
1W
0S
03
1_
0`
1d
1-
0)
1X
0W
1S
1.
0-
1)
#40000
08
07
16
0L
0K
1J
1g
0h
0j
1n
1}
0*!
04!
0o
1p
0r
1|
1+!
06!
09!
1:!
0i
0l
10!
0;!
0s
0,!
0q
0~
1!!
1-!
17!
0<!
11!
12!
0=!
08!
1C!
0F!
0]
1\
0O
1P
13
02
0c
0T
0*
#50000
18
1L
1j
1k
0n
0}
1"!
1*!
1.!
14!
0:!
18!
0-!
0!!
1,!
1q
1s
1#!
1/!
1$!
1r
1-!
0"!
0.!
1.!
1%!
1&!
0>!
1?!
1A!
0C!
1F!
0H!
0J!
1[
1Q
0^
14
0_
0a
1c
0Y
0X
0V
1T
0/
0.
0,
1*
#60000
08
17
0L
1K
1h
0j
1n
1}
0*!
04!
1i
1l
1o
0|
0+!
16!
0s
0/!
07!
1~
1!!
0,!
08!
00!
0t
0w
01!
0-!
1"!
0.!
02!
0x
1>!
0@!
0A!
1B!
0G!
1H!
1I!
0Z
0\
0R
0P
1^
05
03
1`
1a
0b
1Y
1W
1V
0U
1/
1-
1,
0+
#70000
18
1L
1j
0l
0n
0p
0}
1*!
14!
19!
1;!
18!
1-!
17!
0!!
1,!
1s
1/!
10!
1t
0-!
07!
0"!
08!
1.!
1<!
1=!
18!
0.!
1w
11!
12!
1x
0?!
1A!
0B!
1G!
0H!
1J!
1B!
1C!
1]
0F!
0G!
1O
1Z
1\
12
1_
0a
1b
1R
1P
1X
0V
1U
15
13
0b
0c
1.
0,
1+
0U
0T
0+
0*
#80000
08
07
06
11
0L
0K
0J
1N
1u
0g
0h
0j
1n
1}
0*!
04!
0o
1p
0r
1|
1+!
06!
09!
1:!
0k
1l
0%!
0&!
01!
0<!
0=!
02!
1?!
0A!
0B!
0C!
1D!
1&!
0#!
0/!
0;!
0s
0,!
0q
0~
0E!
1F!
1G!
1H!
0J!
1!!
1-!
17!
0t
00!
0$!
1@!
0D!
0[
1E!
0I!
08!
0Q
1[
0\
0]
04
0_
1a
1b
1c
0d
1Q
0P
0O
0X
1V
1U
1T
0S
14
03
02
0`
1d
0.
1,
1+
1*
0)
0W
1S
0-
1)
#90000
18
1L
1j
0n
0}
1"!
1*!
1.!
14!
0:!
18!
1/!
0-!
1#!
0!!
1,!
1q
1r
1-!
0"!
1$!
0.!
10!
1;!
0/!
0#!
1.!
1s
1t
1/!
0$!
00!
10!
#100000
08
17
0L
1K
1h
0j
1n
1}
0*!
04!
1o
0|
0+!
16!
07!
1~
1!!
0,!
08!
0;!
0-!
1"!
1#!
0.!
0/!
1$!
00!
#110000
18
1L
1j
0n
0p
0}
1*!
14!
19!
18!
1-!
17!
0!!
1,!
0-!
07!
0"!
08!
1.!
1;!
1/!
0;!
0#!
18!
0.!
0/!
1;!
0$!
10!
00!
#120000
08
07
16
0L
0K
1J
1g
0h
0j
1n
1}
0*!
04!
0o
1p
0r
1|
1+!
06!
09!
1:!
0i
0l
10!
0;!
0s
0,!
0q
0~
1!!
1-!
17!
08!
#130000
18
1L
1j
1k
0n
0}
1"!
1*!
1.!
14!
0:!
18!
0-!
0!!
1,!
1q
1s
1#!
1/!
1$!
1r
1-!
0"!
0.!
1.!
#140000
08
17
0L
1K
1h
0j
1n
1}
0*!
04!
1i
1l
1o
0|
0+!
16!
0s
0/!
07!
1~
1!!
0,!
08!
00!
0t
0-!
1"!
0.!
#150000
18
1L
1j
0l
0n
0p
0}
1*!
14!
19!
1;!
18!
1-!
17!
0!!
1,!
1s
1/!
10!
1t
0-!
07!
0"!
08!
1.!
18!
0.!
#160000
08
07
06
01
10
0L
0K
0J
0N
1M
1v
0u
0g
0h
0j
1n
1}
0*!
04!
0o
1p
0r
1|
1+!
06!
09!
1:!
0k
1l
0&!
0w
0x
1%!
12!
1&!
0?!
1A!
1D!
0#!
0/!
0;!
0s
0,!
0q
0~
0E!
0H!
1J!
1!!
1-!
17!
0t
00!
0$!
0@!
0A!
1C!
0D!
1\
0Z
0[
1E!
0F!
1H!
1I!
08!
1P
0R
0Q
1[
05
04
13
1_
0a
0d
1Q
1X
0V
0S
14
1`
1a
0c
1d
1.
0,
0)
1W
1V
0T
1S
1-
1,
0*
1)
#170000
18
1L
1j
0n
0}
1"!
1*!
1.!
14!
0:!
18!
1/!
0-!
1#!
0!!
1,!
1q
1r
1-!
0"!
1$!
0.!
10!
1;!
0/!
0#!
1.!
1s
1t
1/!
0$!
00!
10!
#180000
08
17
0L
1K
1h
0j
1n
1}
0*!
04!
1o
0|
0+!
16!
07!
1~
1!!
0,!
08!
0;!
0-!
1"!
1#!
0.!
0/!
1$!
00!
#190000
18
1L
1j
0n
0p
0}
1*!
14!
19!
18!
1-!
17!
0!!
1,!
0-!
07!
0"!
08!
1.!
1;!
1/!
0;!
0#!
18!
0.!
0/!
1;!
0$!
10!
00!
#200000
08
07
16
0L
0K
1J
1g
0h
0j
1n
1}
0*!
04!
0o
1p
0r
1|
1+!
06!
09!
1:!
0i
0l
10!
0;!
0s
0,!
0q
0~
1!!
1-!
17!
08!
#210000
18
1L
1j
1k
0n
0}
1"!
1*!
1.!
14!
0:!
18!
0-!
0!!
1,!
1q
1s
1#!
1/!
1$!
1r
1-!
0"!
0.!
1.!
#220000
08
17
0L
1K
1h
0j
1n
1}
0*!
04!
1i
1l
1o
0|
0+!
16!
0s
0/!
07!
1~
1!!
0,!
08!
00!
0t
0-!
1"!
0.!
#230000
18
1L
1j
0l
0n
0p
0}
1*!
14!
19!
1;!
18!
1-!
17!
0!!
1,!
1s
1/!
10!
1t
0-!
07!
0"!
08!
1.!
18!
0.!
#240000
08
07
06
11
0L
0K
0J
1N
1u
0g
0h
0j
1n
1}
0*!
04!
0o
1p
0r
1|
1+!
06!
09!
1:!
0k
1l
1w
0&!
11!
02!
1@!
1A!
0C!
1D!
0#!
0/!
0;!
0s
0,!
0q
0~
0E!
1F!
0H!
0I!
1!!
1-!
17!
0t
00!
0$!
0>!
0@!
0A!
0D!
0[
1E!
1H!
1I!
08!
0Q
0\
04
0`
0a
1c
0d
0P
0^
0W
0V
1T
0S
03
1`
1a
1d
0Y
0-
0,
1*
0)
1W
1V
1S
0/
1-
1,
1)
#250000
18
1L
1j
0n
1x
0}
1"!
1*!
1.!
14!
0:!
18!
1/!
0-!
1#!
0!!
1,!
1?!
1@!
1A!
1D!
1q
0E!
0H!
0I!
0J!
1r
1-!
0"!
1$!
0.!
10!
1;!
1Z
0/!
0#!
1.!
1s
1R
15
0_
0`
0a
0d
1t
1/!
0$!
00!
0X
0W
0V
0S
10!
0.
0-
0,
0)
#260000
08
17
0L
1K
1h
0j
1n
0x
1}
0*!
04!
1o
0|
1&!
0+!
16!
07!
1>!
0@!
0A!
1B!
0D!
1~
1E!
0G!
1H!
1I!
1!!
0,!
08!
1[
0Z
0;!
0-!
1"!
1Q
0R
1^
05
14
1`
1a
0b
1d
1#!
0.!
1Y
1W
1V
0U
1S
1/
0/!
1$!
1-
1,
0+
1)
00!
#270000
18
1L
1j
0n
0p
1x
0}
1*!
14!
19!
18!
1-!
17!
0!!
1,!
1@!
0B!
1G!
0I!
0-!
07!
0"!
08!
1.!
1;!
1Z
1/!
0;!
0#!
18!
0.!
1R
15
0`
1b
0/!
1;!
0$!
10!
0W
1U
00!
0-
1+
#280000
08
07
16
0L
0K
1J
1g
0h
0j
1n
0x
1}
0*!
04!
0o
1p
0r
1|
0&!
1+!
06!
09!
1:!
0i
0l
12!
10!
0;!
0s
0,!
0?!
1A!
1D!
0q
0~
0E!
0H!
1J!
1!!
1-!
17!
1\
0[
0Z
08!
1P
0Q
0R
05
04
13
1_
0a
0d
1X
0V
0S
1.
0,
0)
#290000
18
1L
1j
1k
0n
1x
0}
1"!
1*!
1.!
14!
0:!
18!
0-!
0!!
1,!
0A!
1C!
0D!
1q
1s
1#!
1/!
1E!
0F!
1H!
1$!
1r
1-!
0"!
0.!
1Z
1.!
1R
15
1a
0c
1d
1V
0T
1S
1,
0*
1)
#300000
08
17
0L
1K
1h
0j
1n
0x
1}
0*!
04!
1i
1l
1o
0|
1&!
0+!
16!
0s
0/!
07!
0@!
1~
1I!
1!!
0,!
08!
00!
0t
1[
0Z
0-!
1"!
1Q
0R
05
14
1`
0.!
1W
1-
#310000
18
1L
1j
0l
0n
0p
1x
0}
1*!
14!
19!
1;!
18!
1-!
17!
0!!
1,!
0>!
1?!
1@!
1A!
0C!
1s
1/!
1F!
0H!
0I!
0J!
10!
1t
0-!
07!
0"!
08!
1.!
1Z
18!
0.!
1R
0^
15
0_
0`
0a
1c
0Y
0X
0W
0V
1T
0/
0.
0-
0,
1*
#320000
08
07
06
01
00
0L
0K
0J
0N
0M
0v
0u
0g
0h
0j
1n
1}
0*!
04!
0o
1p
0r
1|
1+!
06!
09!
1:!
0k
1l
1<!
1=!
0#!
0/!
0;!
0s
0,!
0q
0~
1!!
1-!
17!
0t
0<!
00!
0$!
1>!
0?!
0@!
1B!
1C!
0F!
0G!
1I!
1J!
0%!
01!
0=!
0w
08!
1]
0x
0>!
1?!
1@!
0B!
0C!
02!
0&!
1O
1^
1F!
1G!
0I!
0J!
12
1_
1`
0b
0c
0?!
0@!
0A!
1Y
0]
1H!
1I!
1J!
1X
1W
0U
0T
1/
0O
1.
1-
0+
0*
0[
0\
0^
0Z
02
0_
0`
1b
1c
0Q
0P
0Y
0R
0X
0W
1U
1T
05
04
03
0/
1_
1`
1a
0.
0-
1+
1*
1X
1W
1V
1.
1-
1,
#330000
18
1L
1j
0n
0}
1"!
1*!
1.!
14!
0:!
18!
1/!
0-!
1#!
0!!
1,!
1q
1r
1-!
0"!
1$!
0.!
10!
1;!
1<!
11!
0/!
1%!
0#!
1.!
1s
1t
1/!
0$!
1&!
00!
12!
1=!
01!
1>!
1B!
1C!
0%!
10!
1w
0F!
0G!
1x
11!
0&!
02!
1]
1\
1[
12!
1@!
0B!
0C!
1O
1P
1Q
1^
1F!
1G!
0I!
14
13
12
0b
0c
1?!
0@!
1D!
1Y
0\
0[
1Z
0E!
1I!
0J!
0U
0T
1/
0P
0Q
1R
0+
0*
1\
15
04
03
0`
1b
1c
1P
0W
1U
1T
13
0_
1`
0d
0-
1+
1*
0X
1W
0S
0.
1-
0)
#340000
08
17
0L
1K
1h
0j
1n
1}
0*!
04!
1o
0|
0+!
16!
07!
1~
1!!
0,!
08!
0;!
0-!
1"!
1#!
0.!
0<!
0=!
0/!
1$!
1%!
00!
0?!
1@!
1C!
0D!
1E!
0F!
0I!
1J!
01!
1&!
0]
0>!
1?!
1A!
0C!
02!
0O
1F!
0H!
0J!
02
1_
0`
0c
1d
1>!
0A!
1[
1H!
1X
0W
0T
1S
1Q
1.
0-
0*
1)
0\
0^
14
0_
0a
1c
0P
0Y
1^
0X
0V
1T
03
0/
1a
1Y
0.
0,
1*
1V
1/
1,
#350000
18
1L
1j
0n
0p
0}
1*!
14!
19!
18!
1-!
17!
0!!
1,!
0-!
07!
0"!
08!
1.!
1;!
1<!
1/!
0;!
0#!
18!
0.!
0/!
1;!
0$!
0<!
10!
1=!
0?!
0@!
1C!
1D!
11!
0=!
0%!
1<!
00!
0E!
0F!
1I!
1J!
01!
1=!
0&!
1?!
1@!
0C!
0D!
12!
1]
1E!
1F!
0I!
0J!
0@!
1D!
02!
1O
0]
0E!
1I!
12
1_
1`
0c
0d
0?!
1@!
0D!
0O
1\
0[
1]
1E!
0I!
1J!
1X
1W
0T
0S
02
0_
0`
1c
1d
1P
0Q
1O
1.
1-
0*
0)
0\
0X
0W
1T
1S
04
13
12
1`
0d
0P
0.
0-
1*
1)
1W
0S
03
1_
0`
1d
1-
0)
1X
0W
1S
1.
0-
1)
#360000
08
07
16
0L
0K
1J
1g
0h
0j
1n
1}
0*!
04!
0o
1p
0r
1|
1+!
06!
09!
1:!
0i
0l
10!
0;!
0s
0,!
0q
0~
1!!
1-!
17!
0<!
11!
12!
0=!
08!
1C!
0F!
0]
1\
0O
1P
13
02
0c
0T
0*
#370000
18
1L
1j
1k
0n
0}
1"!
1*!
1.!
14!
0:!
18!
0-!
0!!
1,!
1q
1s
1#!
1/!
1$!
1r
1-!
0"!
0.!
1.!
1%!
1&!
0>!
1?!
1A!
0C!
1F!
0H!
0J!
1[
1Q
0^
14
0_
0a
1c
0Y
0X
0V
1T
0/
0.
0,
1*
#380000
08
17
0L
1K
1h
0j
1n
1}
0*!
04!
1i
1l
1o
0|
0+!
16!
0s
0/!
07!
1~
1!!
0,!
08!
00!
0t
0w
01!
0-!
1"!
0.!
02!
0x
1>!
0@!
0A!
1B!
0G!
1H!
1I!
0Z
0\
0R
0P
1^
05
03
1`
1a
0b
1Y
1W
1V
0U
1/
1-
1,
0+
#390000
18
1L
1j
0l
0n
0p
0}
1*!
14!
19!
1;!
18!
1-!
17!
0!!
1,!
1s
1/!
10!
1t
0-!
07!
0"!
08!
1.!
1<!
1=!
18!
0.!
1w
11!
12!
1x
0?!
1A!
0B!
1G!
0H!
1J!
1B!
1C!
1]
0F!
0G!
1O
1Z
1\
12
1_
0a
1b
1R
1P
1X
0V
1U
15
13
0b
0c
1.
0,
1+
0U
0T
0+
0*
#400000
08
07
06
11
0L
0K
0J
1N
1u
0g
0h
0j
1n
1}
0*!
04!
0o
1p
0r
1|
1+!
06!
09!
1:!
0k
1l
0%!
0&!
01!
0<!
0=!
02!
1?!
0A!
0B!
0C!
1D!
1&!
0#!
0/!
0;!
0s
0,!
0q
0~
0E!
1F!
1G!
1H!
0J!
1!!
1-!
17!
0t
00!
0$!
1@!
0D!
0[
1E!
0I!
08!
0Q
1[
0\
0]
04
0_
1a
1b
1c
0d
1Q
0P
0O
0X
1V
1U
1T
0S
14
03
02
0`
1d
0.
1,
1+
1*
0)
0W
1S
0-
1)
#410000
18
1L
1j
0n
0}
1"!
1*!
1.!
14!
0:!
18!
1/!
0-!
1#!
0!!
1,!
1q
1r
1-!
0"!
1$!
0.!
10!
1;!
0/!
0#!
1.!
1s
1t
1/!
0$!
00!
10!
#420000
08
17
0L
1K
1h
0j
1n
1}
0*!
04!
1o
0|
0+!
16!
07!
1~
1!!
0,!
08!
0;!
0-!
1"!
1#!
0.!
0/!
1$!
00!
#430000
18
1L
1j
0n
0p
0}
1*!
14!
19!
18!
1-!
17!
0!!
1,!
0-!
07!
0"!
08!
1.!
1;!
1/!
0;!
0#!
18!
0.!
0/!
1;!
0$!
10!
00!
#440000
08
07
16
0L
0K
1J
1g
0h
0j
1n
1}
0*!
04!
0o
1p
0r
1|
1+!
06!
09!
1:!
0i
0l
10!
0;!
0s
0,!
0q
0~
1!!
1-!
17!
08!
#450000
18
1L
1j
1k
0n
0}
1"!
1*!
1.!
14!
0:!
18!
0-!
0!!
1,!
1q
1s
1#!
1/!
1$!
1r
1-!
0"!
0.!
1.!
#460000
08
17
0L
1K
1h
0j
1n
1}
0*!
04!
1i
1l
1o
0|
0+!
16!
0s
0/!
07!
1~
1!!
0,!
08!
00!
0t
0-!
1"!
0.!
#470000
18
1L
1j
0l
0n
0p
0}
1*!
14!
19!
1;!
18!
1-!
17!
0!!
1,!
1s
1/!
10!
1t
0-!
07!
0"!
08!
1.!
18!
0.!
