Proyectos/lab8/ContadorBidireccional/simulation/qsim/ContadorBidireccional.msim.vcd
$comment
	File created using the following command:
		vcd file ContadorBidireccional.msim.vcd -direction
$end
$date
	Sat May 02 13:04:42 2020
$end
$version
	ModelSim Version 10.5b
$end
$timescale
	1ps
$end

$scope module contador_bidireccional_vhd_vec_tst $end
$var wire 1 ! clk $end
$var wire 1 " cout $end
$var wire 1 # down $end
$var wire 1 $ en $end
$var wire 1 % ld $end
$var wire 1 & max [3] $end
$var wire 1 ' max [2] $end
$var wire 1 ( max [1] $end
$var wire 1 ) max [0] $end
$var wire 1 * Q [3] $end
$var wire 1 + Q [2] $end
$var wire 1 , Q [1] $end
$var wire 1 - Q [0] $end
$var wire 1 . R [3] $end
$var wire 1 / R [2] $end
$var wire 1 0 R [1] $end
$var wire 1 1 R [0] $end
$var wire 1 2 resetn $end

$scope module i1 $end
$var wire 1 3 gnd $end
$var wire 1 4 vcc $end
$var wire 1 5 unknown $end
$var wire 1 6 devoe $end
$var wire 1 7 devclrn $end
$var wire 1 8 devpor $end
$var wire 1 9 ww_devoe $end
$var wire 1 : ww_devclrn $end
$var wire 1 ; ww_devpor $end
$var wire 1 < ww_clk $end
$var wire 1 = ww_resetn $end
$var wire 1 > ww_en $end
$var wire 1 ? ww_ld $end
$var wire 1 @ ww_max [3] $end
$var wire 1 A ww_max [2] $end
$var wire 1 B ww_max [1] $end
$var wire 1 C ww_max [0] $end
$var wire 1 D ww_R [3] $end
$var wire 1 E ww_R [2] $end
$var wire 1 F ww_R [1] $end
$var wire 1 G ww_R [0] $end
$var wire 1 H ww_down $end
$var wire 1 I ww_cout $end
$var wire 1 J ww_Q [3] $end
$var wire 1 K ww_Q [2] $end
$var wire 1 L ww_Q [1] $end
$var wire 1 M ww_Q [0] $end
$var wire 1 N \resetn~inputclkctrl_INCLK_bus\ [3] $end
$var wire 1 O \resetn~inputclkctrl_INCLK_bus\ [2] $end
$var wire 1 P \resetn~inputclkctrl_INCLK_bus\ [1] $end
$var wire 1 Q \resetn~inputclkctrl_INCLK_bus\ [0] $end
$var wire 1 R \clk~inputclkctrl_INCLK_bus\ [3] $end
$var wire 1 S \clk~inputclkctrl_INCLK_bus\ [2] $end
$var wire 1 T \clk~inputclkctrl_INCLK_bus\ [1] $end
$var wire 1 U \clk~inputclkctrl_INCLK_bus\ [0] $end
$var wire 1 V \cout~output_o\ $end
$var wire 1 W \Q[0]~output_o\ $end
$var wire 1 X \Q[1]~output_o\ $end
$var wire 1 Y \Q[2]~output_o\ $end
$var wire 1 Z \Q[3]~output_o\ $end
$var wire 1 [ \max[2]~input_o\ $end
$var wire 1 \ \max[3]~input_o\ $end
$var wire 1 ] \clk~input_o\ $end
$var wire 1 ^ \clk~inputclkctrl_outclk\ $end
$var wire 1 _ \max[0]~input_o\ $end
$var wire 1 ` \max[1]~input_o\ $end
$var wire 1 a \ld~input_o\ $end
$var wire 1 b \en~input_o\ $end
$var wire 1 c \cnt~2_combout\ $end
$var wire 1 d \down~input_o\ $end
$var wire 1 e \R[1]~input_o\ $end
$var wire 1 f \R[0]~input_o\ $end
$var wire 1 g \cnt~0_combout\ $end
$var wire 1 h \cnt~1_combout\ $end
$var wire 1 i \resetn~input_o\ $end
$var wire 1 j \resetn~inputclkctrl_outclk\ $end
$var wire 1 k \cnt~3_combout\ $end
$var wire 1 l \cnt~4_combout\ $end
$var wire 1 m \cnt~5_combout\ $end
$var wire 1 n \Equal0~0_combout\ $end
$var wire 1 o \R[3]~input_o\ $end
$var wire 1 p \cnt~8_combout\ $end
$var wire 1 q \R[2]~input_o\ $end
$var wire 1 r \cnt~7_combout\ $end
$var wire 1 s \cnt~6_combout\ $end
$var wire 1 t \cnt~9_combout\ $end
$var wire 1 u \cnt~10_combout\ $end
$var wire 1 v \cnt~12_combout\ $end
$var wire 1 w \cnt~13_combout\ $end
$var wire 1 x \cnt~11_combout\ $end
$var wire 1 y \Equal0~1_combout\ $end
$var wire 1 z \Equal0~2_combout\ $end
$var wire 1 { cnt [3] $end
$var wire 1 | cnt [2] $end
$var wire 1 } cnt [1] $end
$var wire 1 ~ cnt [0] $end
$upscope $end
$upscope $end
$enddefinitions $end
#0
$dumpvars
1!
0"
0#
1$
0%
12
03
14
x5
16
17
18
19
1:
1;
1<
1=
1>
0?
0H
0I
0V
0W
0X
0Y
0Z
0[
1\
1]
1^
1_
0`
0a
1b
1c
0d
0e
1f
1g
1h
1i
1j
0k
0l
0m
0n
0o
1p
1q
0r
0s
0t
0u
0v
0w
0x
0y
0z
1&
0'
0(
1)
0.
1/
00
11
0*
0+
0,
0-
1@
0A
0B
1C
0D
1E
0F
1G
0J
0K
0L
0M
0{
0|
0}
0~
1R
1S
1T
1U
1N
1O
1P
1Q
$end
#10000
0!
0<
0]
0U
0^
#20000
1!
1<
1]
1U
1^
1~
0g
1k
1n
1l
0h
1W
1m
1M
1-
#30000
0!
0<
0]
0U
0^
#40000
1!
1<
1]
1U
1^
0~
1}
1g
0n
1h
1X
0W
1L
0M
0-
1,
#50000
0!
0<
0]
0U
0^
#60000
1!
02
1<
0=
0i
1]
0Q
1U
1^
0j
0}
0k
0l
0X
0m
0L
0,
#70000
0!
0<
0]
0U
0^
#80000
1!
12
1<
1=
1i
1]
1Q
1U
1^
1j
1~
0g
1k
1n
1l
0h
1W
1m
1M
1-
#90000
0!
0<
0]
0U
0^
#100000
1!
1%
1<
1?
1a
1]
1U
0c
1g
0l
0p
1r
1t
1h
0m
1^
1|
1Y
1K
1+
#110000
0!
0<
0]
0U
0^
#120000
1!
0%
1<
0?
0a
1]
1U
1c
0g
1l
1p
0h
1m
1^
0~
1}
1g
0n
1h
1X
0W
1L
0M
0-
1,
#130000
0!
0<
0]
0U
0^
#140000
1!
1<
1]
1U
1^
1~
0g
0k
1s
1u
1v
0t
0l
0h
1W
0m
1w
1M
1-
1x
#150000
0!
0<
0]
0U
0^
#160000
1!
1<
1]
1U
1^
0~
0}
0|
1{
0v
0r
1y
1g
0s
0u
1v
1h
0w
1Z
0Y
0X
0W
0x
1w
1J
0K
0L
0M
0-
0,
0+
1*
1x
#170000
0!
0<
0]
0U
0^
#180000
1!
1<
1]
1U
1^
1~
0g
1k
1n
0x
1z
1l
0h
1W
1M
1-
1V
1I
1"
#190000
0!
0<
0]
0U
0^
#200000
1!
1<
1]
1U
1^
0~
0{
0v
0y
1g
0k
0n
0l
1h
1x
0z
0w
0Z
0W
0x
0J
0M
0-
0*
0V
0I
0"
#210000
0!
0<
0]
0U
0^
#220000
1!
1<
1]
1U
1^
1~
0g
1k
1n
1l
0h
1W
1m
1M
1-
#230000
0!
0<
0]
0U
0^
#240000
1!
1#
1<
1H
1d
1]
1U
0m
1u
1v
1w
0v
1^
0w
1x
0~
0x
1g
0k
0n
1s
0u
1v
1t
0l
1h
0W
1m
1w
0M
0-
1x
#250000
0!
0<
0]
0U
0^
#260000
1!
1<
1]
1U
1^
1~
1}
1|
1{
0v
1r
0g
0s
1u
1v
0h
0w
1Z
1Y
1X
1W
0x
1w
1J
1K
1L
1M
1-
1,
1+
1*
1x
#270000
0!
0<
0]
0U
0^
#280000
1!
1<
1]
1U
1^
0~
1g
1k
1l
1h
0W
0m
0M
0-
#290000
0!
0<
0]
0U
0^
#300000
1!
1<
1]
1U
1^
1~
0}
0g
1n
0h
0X
1W
0L
1M
1-
0,
#310000
0!
0<
0]
0U
0^
#320000
1!
1<
1]
1U
1^
0~
1g
0k
0n
1s
0t
0l
1h
0W
1m
0M
0-
#330000
0!
0<
0]
0U
0^
#340000
1!
1<
1]
1U
1^
1~
1}
0|
0r
1y
0g
0s
0h
0Y
1X
1W
0K
1L
1M
1-
1,
0+
#350000
0!
0<
0]
0U
0^
#360000
1!
1<
1]
1U
1^
0~
1g
1k
1l
1h
0W
0m
0M
0-
#370000
0!
0<
0]
0U
0^
#380000
1!
1<
1]
1U
1^
1~
0}
0g
1n
1z
0X
1W
1m
1s
0L
1M
1-
0,
1t
1V
1I
1"
#390000
0!
0<
0]
0U
0^
#400000
1!
1<
1]
1U
1^
1}
1|
1r
0y
0k
0n
0l
0h
0z
1Y
1X
0s
0t
1K
1L
1,
1+
1t
0V
0I
0"
#410000
0!
0<
0]
0U
0^
#420000
1!
1<
1]
1U
1^
0~
1g
1k
1l
1h
0W
0m
0M
0-
#430000
0!
0<
0]
0U
0^
#440000
1!
1%
1<
1?
1a
1]
1U
0c
0l
0p
0w
0x
1^
1~
0}
0{
0v
1n
0Z
0X
1W
0J
0L
1M
1-
0,
0*
#450000
0!
0<
0]
0U
0^
#460000
1!
0%
1<
0?
0a
1]
1U
1c
0g
1l
1p
0h
1^
0~
1g
0k
0n
1s
0t
0l
1h
0W
1m
0M
0-
#470000
0!
0<
0]
0U
0^
