Proyectos/lab8/ContadorAsincrono/simulation/qsim/ContadorAsincrono.msim.vcd
$comment
	File created using the following command:
		vcd file ContadorAsincrono.msim.vcd -direction
$end
$date
	Sat Apr 25 14:21:44 2020
$end
$version
	ModelSim Version 10.5b
$end
$timescale
	1ps
$end

$scope module contador_asincrono_vhd_vec_tst $end
$var wire 1 ! clk $end
$var wire 1 " cout $end
$var wire 1 # en $end
$var wire 1 $ ld $end
$var wire 1 % max [3] $end
$var wire 1 & max [2] $end
$var wire 1 ' max [1] $end
$var wire 1 ( max [0] $end
$var wire 1 ) Q [3] $end
$var wire 1 * Q [2] $end
$var wire 1 + Q [1] $end
$var wire 1 , Q [0] $end
$var wire 1 - R [3] $end
$var wire 1 . R [2] $end
$var wire 1 / R [1] $end
$var wire 1 0 R [0] $end
$var wire 1 1 resetn $end

$scope module i1 $end
$var wire 1 2 gnd $end
$var wire 1 3 vcc $end
$var wire 1 4 unknown $end
$var wire 1 5 devoe $end
$var wire 1 6 devclrn $end
$var wire 1 7 devpor $end
$var wire 1 8 ww_devoe $end
$var wire 1 9 ww_devclrn $end
$var wire 1 : ww_devpor $end
$var wire 1 ; ww_clk $end
$var wire 1 < ww_resetn $end
$var wire 1 = ww_en $end
$var wire 1 > ww_ld $end
$var wire 1 ? ww_max [3] $end
$var wire 1 @ ww_max [2] $end
$var wire 1 A ww_max [1] $end
$var wire 1 B ww_max [0] $end
$var wire 1 C ww_R [3] $end
$var wire 1 D ww_R [2] $end
$var wire 1 E ww_R [1] $end
$var wire 1 F ww_R [0] $end
$var wire 1 G ww_cout $end
$var wire 1 H ww_Q [3] $end
$var wire 1 I ww_Q [2] $end
$var wire 1 J ww_Q [1] $end
$var wire 1 K ww_Q [0] $end
$var wire 1 L \resetn~inputclkctrl_INCLK_bus\ [3] $end
$var wire 1 M \resetn~inputclkctrl_INCLK_bus\ [2] $end
$var wire 1 N \resetn~inputclkctrl_INCLK_bus\ [1] $end
$var wire 1 O \resetn~inputclkctrl_INCLK_bus\ [0] $end
$var wire 1 P \clk~inputclkctrl_INCLK_bus\ [3] $end
$var wire 1 Q \clk~inputclkctrl_INCLK_bus\ [2] $end
$var wire 1 R \clk~inputclkctrl_INCLK_bus\ [1] $end
$var wire 1 S \clk~inputclkctrl_INCLK_bus\ [0] $end
$var wire 1 T \cout~output_o\ $end
$var wire 1 U \Q[0]~output_o\ $end
$var wire 1 V \Q[1]~output_o\ $end
$var wire 1 W \Q[2]~output_o\ $end
$var wire 1 X \Q[3]~output_o\ $end
$var wire 1 Y \max[2]~input_o\ $end
$var wire 1 Z \max[3]~input_o\ $end
$var wire 1 [ \clk~input_o\ $end
$var wire 1 \ \clk~inputclkctrl_outclk\ $end
$var wire 1 ] \ld~input_o\ $end
$var wire 1 ^ \R[2]~input_o\ $end
$var wire 1 _ \R[0]~input_o\ $end
$var wire 1 ` \cnt[0]~0_combout\ $end
$var wire 1 a \en~input_o\ $end
$var wire 1 b \max[0]~input_o\ $end
$var wire 1 c \max[1]~input_o\ $end
$var wire 1 d \R[1]~input_o\ $end
$var wire 1 e \cnt[1]~3_combout\ $end
$var wire 1 f \cnt[1]~4_combout\ $end
$var wire 1 g \cnt[1]~5_combout\ $end
$var wire 1 h \resetn~input_o\ $end
$var wire 1 i \resetn~inputclkctrl_outclk\ $end
$var wire 1 j \Equal0~0_combout\ $end
$var wire 1 k \cnt[3]~1_combout\ $end
$var wire 1 l \cnt[0]~2_combout\ $end
$var wire 1 m \cnt[2]~6_combout\ $end
$var wire 1 n \cnt[2]~7_combout\ $end
$var wire 1 o \cnt[2]~8_combout\ $end
$var wire 1 p \R[3]~input_o\ $end
$var wire 1 q \Add0~0_combout\ $end
$var wire 1 r \cnt[3]~9_combout\ $end
$var wire 1 s \cnt[3]~10_combout\ $end
$var wire 1 t \Equal0~1_combout\ $end
$var wire 1 u \Equal0~2_combout\ $end
$var wire 1 v cnt [3] $end
$var wire 1 w cnt [2] $end
$var wire 1 x cnt [1] $end
$var wire 1 y cnt [0] $end
$upscope $end
$upscope $end
$enddefinitions $end
#0
$dumpvars
1!
0"
1#
0$
11
02
13
x4
15
16
17
18
19
1:
1;
1<
1=
0>
0G
0T
0U
0V
0W
0X
0Y
1Z
1[
1\
0]
1^
1_
1`
1a
1b
0c
0d
1e
0f
0g
1h
1i
0j
1k
1l
0m
0n
0o
0p
0q
0r
0s
0t
0u
1%
0&
0'
1(
0-
1.
0/
10
0)
0*
0+
0,
1?
0@
0A
1B
0C
1D
0E
1F
0H
0I
0J
0K
0v
0w
0x
0y
1P
1Q
1R
1S
1L
1M
1N
1O
$end
#10000
0!
0;
0[
0S
0\
#20000
1!
1;
1[
1S
1\
1y
0`
0e
1j
1g
0l
1U
1K
1,
#30000
0!
0;
0[
0S
0\
#40000
1!
1;
1[
1S
1\
1x
0y
1`
1e
1f
0j
1l
0U
1V
0K
1J
0,
1+
#50000
0!
0;
0[
0S
0\
#60000
1!
1;
1[
1S
1\
1y
0`
0e
1m
1n
0g
0l
1U
1o
1K
1,
#70000
0!
0;
0[
0S
0\
#80000
1!
1;
1[
1S
1\
0x
0y
1w
1`
1e
0f
1l
1W
0U
0V
1I
0K
0J
0,
0+
1*
#90000
0!
0;
0[
0S
0\
#100000
1!
1;
1[
1S
1\
1y
0`
0e
1j
1g
0l
1U
1K
1,
#110000
0!
0;
0[
0S
0\
#120000
1!
0#
1;
0=
0a
1[
1S
1e
0k
1l
0g
1\
#130000
0!
0;
0[
0S
0\
#140000
1!
1#
1;
1=
1a
1[
1S
0e
1k
0l
1g
1\
1x
0y
1`
1e
1f
0j
1l
0U
1V
0K
1J
0,
1+
#150000
0!
0;
0[
0S
0\
#160000
1!
1;
1[
1S
1\
1y
0`
0e
0m
1q
1r
0n
0g
0l
1U
0o
1s
1K
1,
#170000
0!
0;
0[
0S
0\
#180000
1!
1;
1[
1S
1\
0x
0y
0w
1v
1t
1`
1e
0f
1l
1X
0W
0U
0V
1H
0I
0K
0J
0,
0+
0*
1)
#190000
0!
0;
0[
0S
0\
#200000
1!
1;
1[
1S
1\
1y
0`
0e
1j
1u
0l
1U
0s
1K
1,
1T
1G
1"
#210000
0!
0;
0[
0S
0\
#220000
1!
1;
1[
1S
1\
0y
0v
0t
1`
1e
0j
0q
0r
0u
0X
0U
1l
0H
0K
0,
0)
0T
0G
0"
#230000
0!
0;
0[
0S
0\
#240000
1!
1;
1[
1S
1\
1y
0`
0e
1j
1g
0l
1U
1K
1,
#250000
0!
0;
0[
0S
0\
#260000
1!
1;
1[
1S
1\
1x
0y
1`
1e
1f
0j
1l
0U
1V
0K
1J
0,
1+
#270000
0!
0;
0[
0S
0\
#280000
1!
1;
1[
1S
1\
1y
0`
0e
1m
1n
0g
0l
1U
1o
1K
1,
#290000
0!
0;
0[
0S
0\
#300000
1!
1;
1[
1S
1\
0x
0y
1w
1`
1e
0f
1l
1W
0U
0V
1I
0K
0J
0,
0+
1*
#310000
0!
0;
0[
0S
0\
#320000
1!
1;
1[
1S
1\
1y
0`
0e
1j
1g
0l
1U
1K
1,
#330000
0!
0;
0[
0S
0\
#340000
1!
1;
1[
1S
1\
1x
0y
1`
1e
1f
0j
1l
0U
1V
0K
1J
0,
1+
#350000
0!
0;
0[
0S
0\
#360000
1!
1;
1[
1S
1\
1y
0`
0e
0m
1q
1r
0n
0g
0l
1U
0o
1s
1K
1,
#370000
0!
0;
0[
0S
0\
#380000
1!
01
1;
0<
0h
1[
0O
1S
1\
0i
0x
0y
0w
1`
1e
0f
0q
0r
1l
0W
0U
0V
0s
0I
0K
0J
0,
0+
0*
#390000
0!
0;
0[
0S
0\
#400000
1!
11
1;
1<
1h
1[
1O
1S
1\
1i
1y
0`
0e
1j
1g
0l
1U
1K
1,
#410000
0!
0;
0[
0S
0\
#420000
1!
1;
1[
1S
1\
1x
0y
1`
1e
1f
0j
1l
0U
1V
0K
1J
0,
1+
#430000
0!
0;
0[
0S
0\
#440000
1!
1$
1;
1>
1]
1[
1S
0e
1n
1o
0g
1\
0x
1y
1w
1j
1W
1U
0V
1I
1K
0J
1,
0+
1*
#450000
0!
0;
0[
0S
0\
#460000
1!
0$
1;
0>
0]
1[
1S
0`
0f
1m
0n
0o
1n
1g
0l
1\
1o
1x
0y
0w
1`
1e
1f
0j
0m
0n
1l
0W
0U
1V
0o
0I
0K
1J
0,
1+
0*
#470000
0!
0;
0[
0S
0\
